…
**Demo:** Import the data file so it looks like below. Store it as `powerball_raw`.

``` r
#> # A tibble: 2,420 × 61
#>    `Draw date`      `Last Day To Claim` `Winning Numbers` Powerball `Power Play`
#>    <chr>            <dttm>              <chr>                 <dbl>        <dbl>
#>  1 Saturday, 9/23/… 2024-03-21 00:00:00 1 - 12 - 20 - 33…        21            2
#>  2 Wednesday, 9/20… 2024-03-18 00:00:00 16 - 27 - 59 - 6…        23            3
#>  3 Monday, 9/18/23  2024-03-16 00:00:00 2 - 21 - 26 - 40…         9            3
#>  4 Saturday, 9/16/… 2024-03-14 00:00:00 8 - 11 - 19 - 24…         5            2
#>  5 Wednesday, 9/13… 2024-03-11 00:00:00 22 - 30 - 37 - 4…        18            3
#>  6 Monday, 9/11/23  2024-03-09 00:00:00 9 - 25 - 27 - 53…         5            2
#>  7 Saturday, 9/9/23 2024-03-07 00:00:00 11 - 19 - 29 - 6…        25            2
#>  8 Wednesday, 9/6/… 2024-03-04 00:00:00 9 - 14 - 20 - 23…         1            3
#>  9 Monday, 9/4/23   2024-03-02 00:00:00 1 - 26 - 32 - 46…        13            3
#> 10 Saturday, 9/2/23 2024-02-29 00:00:00 25 - 38 - 42 - 6…        19            4
#> # ℹ 2,410 more rows
#> # ℹ 56 more variables: Jackpot <dbl>, `Jackpot Cash Value` <dbl>,
#> #   `Jackpot Winners` <dbl>, `Jackpot CO Winners` <dbl>, `Match 5 Prize` <dbl>,
#> #   `Match 5 CO Winners` <dbl>, `Match 5 Prize (with Power Play)` <dbl>,
#> #   `Match 5 CO Winners (with Power Play)` <dbl>,
#> #   `Match 4 + Powerball Prize` <dbl>, `Match 4 + Powerball CO Winners` <dbl>,
#> #   `Match 4 + Powerball Prize (with Power Play)` <dbl>, …
```
…
